# MagicaVoxel @ Ephtracy

# group
o 

# material
mtllib car2.mtl
usemtl palette

# normals
vn -1 0 0
vn 1 0 0
vn 0 0 1
vn 0 0 -1
vn 0 -1 0
vn 0 1 0

# texcoords
vt 0.958984 0.5
vt 0.966797 0.5
vt 0.982422 0.5
vt 0.990234 0.5
vt 0.994141 0.5

# verts
v 1 2.1 -0.9
v 1 2.1 -1.2
v 1 2.1 -3
v 1 2.1 -3.3
v 1 2.2 -0.8
v 1 2.2 -0.9
v 1 2.2 -1.2
v 1 2.2 -1.3
v 1 2.2 -2.9
v 1 2.2 -3
v 1 2.2 -3.3
v 1 2.2 -3.4
v 1 2.3 -0.7
v 1 2.3 -0.8
v 1 2.3 -1.3
v 1 2.3 -1.4
v 1 2.3 -2.8
v 1 2.3 -2.9
v 1 2.3 -3.4
v 1 2.3 -3.5
v 1 2.4 -1
v 1 2.4 -1.1
v 1 2.4 -3.1
v 1 2.4 -3.2
v 1 2.5 -1
v 1 2.5 -1.1
v 1 2.5 -3.1
v 1 2.5 -3.2
v 1 2.6 -0.7
v 1 2.6 -0.8
v 1 2.6 -1.3
v 1 2.6 -1.4
v 1 2.6 -2.8
v 1 2.6 -2.9
v 1 2.6 -3.4
v 1 2.6 -3.5
v 1 2.7 -0.8
v 1 2.7 -0.9
v 1 2.7 -1.2
v 1 2.7 -1.3
v 1 2.7 -2.9
v 1 2.7 -3
v 1 2.7 -3.3
v 1 2.7 -3.4
v 1 2.8 -0.9
v 1 2.8 -1.2
v 1 2.8 -3
v 1 2.8 -3.3
v 1.1 2.4 0
v 1.1 2.4 -0.7
v 1.1 2.4 -1
v 1.1 2.4 -1.1
v 1.1 2.4 -1.4
v 1.1 2.4 -2.8
v 1.1 2.4 -3.1
v 1.1 2.4 -3.2
v 1.1 2.4 -3.5
v 1.1 2.4 -4
v 1.1 2.5 -1
v 1.1 2.5 -1.1
v 1.1 2.5 -3.1
v 1.1 2.5 -3.2
v 1.1 2.6 -0.7
v 1.1 2.6 -0.8
v 1.1 2.6 -1.3
v 1.1 2.6 -1.4
v 1.1 2.6 -2.8
v 1.1 2.6 -2.9
v 1.1 2.6 -3.4
v 1.1 2.6 -3.5
v 1.1 2.7 -0.8
v 1.1 2.7 -0.9
v 1.1 2.7 -1.2
v 1.1 2.7 -1.3
v 1.1 2.7 -2.9
v 1.1 2.7 -3
v 1.1 2.7 -3.3
v 1.1 2.7 -3.4
v 1.1 2.8 0
v 1.1 2.8 -0.1
v 1.1 2.8 -0.9
v 1.1 2.8 -1.2
v 1.1 2.8 -3
v 1.1 2.8 -3.3
v 1.1 2.8 -3.9
v 1.1 2.8 -4
v 1.1 3 0
v 1.1 3 -0.1
v 1.1 3 -3.9
v 1.1 3 -4
v 1.1 3.1 0
v 1.1 3.1 -4
v 1.2 2.4 -0.7
v 1.2 2.4 -1
v 1.2 2.4 -1.1
v 1.2 2.4 -1.4
v 1.2 2.4 -2.8
v 1.2 2.4 -3.1
v 1.2 2.4 -3.2
v 1.2 2.4 -3.5
v 1.2 2.5 -1
v 1.2 2.5 -1.1
v 1.2 2.5 -3.1
v 1.2 2.5 -3.2
v 1.2 2.6 -0.7
v 1.2 2.6 -0.8
v 1.2 2.6 -1.3
v 1.2 2.6 -1.4
v 1.2 2.6 -2.8
v 1.2 2.6 -2.9
v 1.2 2.6 -3.4
v 1.2 2.6 -3.5
v 1.2 2.7 -0.8
v 1.2 2.7 -0.9
v 1.2 2.7 -1.2
v 1.2 2.7 -1.3
v 1.2 2.7 -2.9
v 1.2 2.7 -3
v 1.2 2.7 -3.3
v 1.2 2.7 -3.4
v 1.2 2.8 -0.9
v 1.2 2.8 -1.2
v 1.2 2.8 -3
v 1.2 2.8 -3.3
v 1.3 3.1 -1.1
v 1.3 3.1 -3.4
v 1.3 3.2 -1.3
v 1.3 3.2 -2.1
v 1.3 3.2 -2.4
v 1.3 3.2 -3.2
v 1.3 3.5 -1.3
v 1.3 3.5 -1.4
v 1.3 3.6 -1.4
v 1.3 3.6 -1.6
v 1.3 3.7 -1.6
v 1.3 3.7 -2.1
v 1.3 3.7 -2.4
v 1.3 3.7 -3.2
v 1.3 3.9 -1.1
v 1.3 3.9 -3.4
v 1.7 3.1 -0.3
v 1.7 3.1 -0.8
v 1.7 3.2 -0.3
v 1.7 3.2 -0.8
v 2.1 3.1 -0.3
v 2.1 3.1 -0.8
v 2.1 3.2 -0.3
v 2.1 3.2 -0.8
v 2.9 2.1 -0.9
v 2.9 2.1 -1.2
v 2.9 2.1 -3
v 2.9 2.1 -3.3
v 2.9 2.2 -0.8
v 2.9 2.2 -0.9
v 2.9 2.2 -1.2
v 2.9 2.2 -1.3
v 2.9 2.2 -2.9
v 2.9 2.2 -3
v 2.9 2.2 -3.3
v 2.9 2.2 -3.4
v 2.9 2.3 -0.7
v 2.9 2.3 -0.8
v 2.9 2.3 -1.3
v 2.9 2.3 -1.4
v 2.9 2.3 -2.8
v 2.9 2.3 -2.9
v 2.9 2.3 -3.4
v 2.9 2.3 -3.5
v 2.9 2.4 -0.7
v 2.9 2.4 -1
v 2.9 2.4 -1.1
v 2.9 2.4 -1.4
v 2.9 2.4 -2.8
v 2.9 2.4 -3.1
v 2.9 2.4 -3.2
v 2.9 2.4 -3.5
v 2.9 2.5 -1
v 2.9 2.5 -1.1
v 2.9 2.5 -3.1
v 2.9 2.5 -3.2
v 2.9 2.6 -0.7
v 2.9 2.6 -0.8
v 2.9 2.6 -1.3
v 2.9 2.6 -1.4
v 2.9 2.6 -2.8
v 2.9 2.6 -2.9
v 2.9 2.6 -3.4
v 2.9 2.6 -3.5
v 2.9 2.7 -0.8
v 2.9 2.7 -0.9
v 2.9 2.7 -1.2
v 2.9 2.7 -1.3
v 2.9 2.7 -2.9
v 2.9 2.7 -3
v 2.9 2.7 -3.3
v 2.9 2.7 -3.4
v 2.9 2.8 -0.9
v 2.9 2.8 -1.2
v 2.9 2.8 -3
v 2.9 2.8 -3.3
v 1.1 2.1 -0.9
v 1.1 2.1 -1.2
v 1.1 2.1 -3
v 1.1 2.1 -3.3
v 1.1 2.2 -0.8
v 1.1 2.2 -0.9
v 1.1 2.2 -1.2
v 1.1 2.2 -1.3
v 1.1 2.2 -2.9
v 1.1 2.2 -3
v 1.1 2.2 -3.3
v 1.1 2.2 -3.4
v 1.1 2.3 -0.7
v 1.1 2.3 -0.8
v 1.1 2.3 -1.3
v 1.1 2.3 -1.4
v 1.1 2.3 -2.8
v 1.1 2.3 -2.9
v 1.1 2.3 -3.4
v 1.1 2.3 -3.5
v 1.1 2.4 -0.7
v 1.1 2.4 -1
v 1.1 2.4 -1.1
v 1.1 2.4 -1.4
v 1.1 2.4 -2.8
v 1.1 2.4 -3.1
v 1.1 2.4 -3.2
v 1.1 2.4 -3.5
v 1.1 2.5 -1
v 1.1 2.5 -1.1
v 1.1 2.5 -3.1
v 1.1 2.5 -3.2
v 1.1 2.6 -0.7
v 1.1 2.6 -0.8
v 1.1 2.6 -1.3
v 1.1 2.6 -1.4
v 1.1 2.6 -2.8
v 1.1 2.6 -2.9
v 1.1 2.6 -3.4
v 1.1 2.6 -3.5
v 1.1 2.7 -0.8
v 1.1 2.7 -0.9
v 1.1 2.7 -1.2
v 1.1 2.7 -1.3
v 1.1 2.7 -2.9
v 1.1 2.7 -3
v 1.1 2.7 -3.3
v 1.1 2.7 -3.4
v 1.1 2.8 -0.9
v 1.1 2.8 -1.2
v 1.1 2.8 -3
v 1.1 2.8 -3.3
v 1.9 3.1 -0.3
v 1.9 3.1 -0.8
v 1.9 3.2 -0.3
v 1.9 3.2 -0.8
v 2.3 3.1 -0.3
v 2.3 3.1 -0.8
v 2.3 3.2 -0.3
v 2.3 3.2 -0.8
v 2.7 3.1 -1.1
v 2.7 3.1 -3.4
v 2.7 3.2 -1.3
v 2.7 3.2 -2.1
v 2.7 3.2 -2.4
v 2.7 3.2 -3.2
v 2.7 3.5 -1.3
v 2.7 3.5 -1.4
v 2.7 3.6 -1.4
v 2.7 3.6 -1.6
v 2.7 3.7 -1.6
v 2.7 3.7 -2.1
v 2.7 3.7 -2.4
v 2.7 3.7 -3.2
v 2.7 3.9 -1.1
v 2.7 3.9 -3.4
v 2.8 2.4 -0.7
v 2.8 2.4 -1
v 2.8 2.4 -1.1
v 2.8 2.4 -1.4
v 2.8 2.4 -2.8
v 2.8 2.4 -3.1
v 2.8 2.4 -3.2
v 2.8 2.4 -3.5
v 2.8 2.5 -1
v 2.8 2.5 -1.1
v 2.8 2.5 -3.1
v 2.8 2.5 -3.2
v 2.8 2.6 -0.7
v 2.8 2.6 -0.8
v 2.8 2.6 -1.3
v 2.8 2.6 -1.4
v 2.8 2.6 -2.8
v 2.8 2.6 -2.9
v 2.8 2.6 -3.4
v 2.8 2.6 -3.5
v 2.8 2.7 -0.8
v 2.8 2.7 -0.9
v 2.8 2.7 -1.2
v 2.8 2.7 -1.3
v 2.8 2.7 -2.9
v 2.8 2.7 -3
v 2.8 2.7 -3.3
v 2.8 2.7 -3.4
v 2.8 2.8 -0.9
v 2.8 2.8 -1.2
v 2.8 2.8 -3
v 2.8 2.8 -3.3
v 2.9 2.4 0
v 2.9 2.4 -0.7
v 2.9 2.4 -1
v 2.9 2.4 -1.1
v 2.9 2.4 -1.4
v 2.9 2.4 -2.8
v 2.9 2.4 -3.1
v 2.9 2.4 -3.2
v 2.9 2.4 -3.5
v 2.9 2.4 -4
v 2.9 2.5 -1
v 2.9 2.5 -1.1
v 2.9 2.5 -3.1
v 2.9 2.5 -3.2
v 2.9 2.6 -0.7
v 2.9 2.6 -0.8
v 2.9 2.6 -1.3
v 2.9 2.6 -1.4
v 2.9 2.6 -2.8
v 2.9 2.6 -2.9
v 2.9 2.6 -3.4
v 2.9 2.6 -3.5
v 2.9 2.7 -0.8
v 2.9 2.7 -0.9
v 2.9 2.7 -1.2
v 2.9 2.7 -1.3
v 2.9 2.7 -2.9
v 2.9 2.7 -3
v 2.9 2.7 -3.3
v 2.9 2.7 -3.4
v 2.9 2.8 0
v 2.9 2.8 -0.1
v 2.9 2.8 -0.9
v 2.9 2.8 -1.2
v 2.9 2.8 -3
v 2.9 2.8 -3.3
v 2.9 2.8 -3.9
v 2.9 2.8 -4
v 2.9 3 0
v 2.9 3 -0.1
v 2.9 3 -3.9
v 2.9 3 -4
v 2.9 3.1 0
v 2.9 3.1 -4
v 3 2.1 -0.9
v 3 2.1 -1.2
v 3 2.1 -3
v 3 2.1 -3.3
v 3 2.2 -0.8
v 3 2.2 -0.9
v 3 2.2 -1.2
v 3 2.2 -1.3
v 3 2.2 -2.9
v 3 2.2 -3
v 3 2.2 -3.3
v 3 2.2 -3.4
v 3 2.3 -0.7
v 3 2.3 -0.8
v 3 2.3 -1.3
v 3 2.3 -1.4
v 3 2.3 -2.8
v 3 2.3 -2.9
v 3 2.3 -3.4
v 3 2.3 -3.5
v 3 2.4 -1
v 3 2.4 -1.1
v 3 2.4 -3.1
v 3 2.4 -3.2
v 3 2.5 -1
v 3 2.5 -1.1
v 3 2.5 -3.1
v 3 2.5 -3.2
v 3 2.6 -0.7
v 3 2.6 -0.8
v 3 2.6 -1.3
v 3 2.6 -1.4
v 3 2.6 -2.8
v 3 2.6 -2.9
v 3 2.6 -3.4
v 3 2.6 -3.5
v 3 2.7 -0.8
v 3 2.7 -0.9
v 3 2.7 -1.2
v 3 2.7 -1.3
v 3 2.7 -2.9
v 3 2.7 -3
v 3 2.7 -3.3
v 3 2.7 -3.4
v 3 2.8 -0.9
v 3 2.8 -1.2
v 3 2.8 -3
v 3 2.8 -3.3
v 1.1 2.4 0
v 1.1 2.8 0
v 1.1 3 0
v 1.1 3.1 0
v 1.2 2.7 0
v 1.2 2.8 0
v 1.6 2.7 0
v 1.6 3 0
v 2.4 2.7 0
v 2.4 3 0
v 2.8 2.7 0
v 2.8 2.8 0
v 2.9 2.4 0
v 2.9 2.8 0
v 2.9 3 0
v 2.9 3.1 0
v 1.7 3.1 -0.3
v 1.7 3.2 -0.3
v 1.9 3.1 -0.3
v 1.9 3.2 -0.3
v 2.1 3.1 -0.3
v 2.1 3.2 -0.3
v 2.3 3.1 -0.3
v 2.3 3.2 -0.3
v 1 2.3 -0.7
v 1 2.6 -0.7
v 1.1 2.3 -0.7
v 1.1 2.4 -0.7
v 1.1 2.6 -0.7
v 2.9 2.3 -0.7
v 2.9 2.4 -0.7
v 2.9 2.6 -0.7
v 3 2.3 -0.7
v 3 2.6 -0.7
v 1 2.2 -0.8
v 1 2.3 -0.8
v 1 2.6 -0.8
v 1 2.7 -0.8
v 1.1 2.2 -0.8
v 1.1 2.3 -0.8
v 1.1 2.6 -0.8
v 1.1 2.7 -0.8
v 2.9 2.2 -0.8
v 2.9 2.3 -0.8
v 2.9 2.6 -0.8
v 2.9 2.7 -0.8
v 3 2.2 -0.8
v 3 2.3 -0.8
v 3 2.6 -0.8
v 3 2.7 -0.8
v 1 2.1 -0.9
v 1 2.2 -0.9
v 1 2.7 -0.9
v 1 2.8 -0.9
v 1.1 2.1 -0.9
v 1.1 2.2 -0.9
v 1.1 2.7 -0.9
v 1.1 2.8 -0.9
v 2.9 2.1 -0.9
v 2.9 2.2 -0.9
v 2.9 2.7 -0.9
v 2.9 2.8 -0.9
v 3 2.1 -0.9
v 3 2.2 -0.9
v 3 2.7 -0.9
v 3 2.8 -0.9
v 1.1 2.4 -1
v 1.1 2.5 -1
v 1.2 2.4 -1
v 1.2 2.5 -1
v 2.8 2.4 -1
v 2.8 2.5 -1
v 2.9 2.4 -1
v 2.9 2.5 -1
v 1 2.4 -1.1
v 1 2.5 -1.1
v 1.1 2.4 -1.1
v 1.1 2.5 -1.1
v 1.3 3.1 -1.1
v 1.3 3.9 -1.1
v 1.4 3.2 -1.1
v 1.4 3.7 -1.1
v 2.6 3.2 -1.1
v 2.6 3.7 -1.1
v 2.7 3.1 -1.1
v 2.7 3.9 -1.1
v 2.9 2.4 -1.1
v 2.9 2.5 -1.1
v 3 2.4 -1.1
v 3 2.5 -1.1
v 1.1 2.7 -1.2
v 1.1 2.8 -1.2
v 1.2 2.7 -1.2
v 1.2 2.8 -1.2
v 2.8 2.7 -1.2
v 2.8 2.8 -1.2
v 2.9 2.7 -1.2
v 2.9 2.8 -1.2
v 1.1 2.6 -1.3
v 1.1 2.7 -1.3
v 1.2 2.6 -1.3
v 1.2 2.7 -1.3
v 2.8 2.6 -1.3
v 2.8 2.7 -1.3
v 2.9 2.6 -1.3
v 2.9 2.7 -1.3
v 1.1 2.4 -1.4
v 1.1 2.6 -1.4
v 1.2 2.4 -1.4
v 1.2 2.6 -1.4
v 2.8 2.4 -1.4
v 2.8 2.6 -1.4
v 2.9 2.4 -1.4
v 2.9 2.6 -1.4
v 1 2.3 -2.8
v 1 2.6 -2.8
v 1.1 2.3 -2.8
v 1.1 2.4 -2.8
v 1.1 2.6 -2.8
v 2.9 2.3 -2.8
v 2.9 2.4 -2.8
v 2.9 2.6 -2.8
v 3 2.3 -2.8
v 3 2.6 -2.8
v 1 2.2 -2.9
v 1 2.3 -2.9
v 1 2.6 -2.9
v 1 2.7 -2.9
v 1.1 2.2 -2.9
v 1.1 2.3 -2.9
v 1.1 2.6 -2.9
v 1.1 2.7 -2.9
v 2.9 2.2 -2.9
v 2.9 2.3 -2.9
v 2.9 2.6 -2.9
v 2.9 2.7 -2.9
v 3 2.2 -2.9
v 3 2.3 -2.9
v 3 2.6 -2.9
v 3 2.7 -2.9
v 1 2.1 -3
v 1 2.2 -3
v 1 2.7 -3
v 1 2.8 -3
v 1.1 2.1 -3
v 1.1 2.2 -3
v 1.1 2.7 -3
v 1.1 2.8 -3
v 2.9 2.1 -3
v 2.9 2.2 -3
v 2.9 2.7 -3
v 2.9 2.8 -3
v 3 2.1 -3
v 3 2.2 -3
v 3 2.7 -3
v 3 2.8 -3
v 1.1 2.4 -3.1
v 1.1 2.5 -3.1
v 1.2 2.4 -3.1
v 1.2 2.5 -3.1
v 2.8 2.4 -3.1
v 2.8 2.5 -3.1
v 2.9 2.4 -3.1
v 2.9 2.5 -3.1
v 1 2.4 -3.2
v 1 2.5 -3.2
v 1.1 2.4 -3.2
v 1.1 2.5 -3.2
v 2.9 2.4 -3.2
v 2.9 2.5 -3.2
v 3 2.4 -3.2
v 3 2.5 -3.2
v 1.1 2.7 -3.3
v 1.1 2.8 -3.3
v 1.2 2.7 -3.3
v 1.2 2.8 -3.3
v 2.8 2.7 -3.3
v 2.8 2.8 -3.3
v 2.9 2.7 -3.3
v 2.9 2.8 -3.3
v 1.1 2.6 -3.4
v 1.1 2.7 -3.4
v 1.2 2.6 -3.4
v 1.2 2.7 -3.4
v 2.8 2.6 -3.4
v 2.8 2.7 -3.4
v 2.9 2.6 -3.4
v 2.9 2.7 -3.4
v 1.1 2.4 -3.5
v 1.1 2.6 -3.5
v 1.2 2.4 -3.5
v 1.2 2.6 -3.5
v 2.8 2.4 -3.5
v 2.8 2.6 -3.5
v 2.9 2.4 -3.5
v 2.9 2.6 -3.5
v 1.1 2.4 -0.7
v 1.1 2.6 -0.7
v 1.2 2.4 -0.7
v 1.2 2.6 -0.7
v 2.8 2.4 -0.7
v 2.8 2.6 -0.7
v 2.9 2.4 -0.7
v 2.9 2.6 -0.7
v 1.1 2.6 -0.8
v 1.1 2.7 -0.8
v 1.2 2.6 -0.8
v 1.2 2.7 -0.8
v 1.7 3.1 -0.8
v 1.7 3.2 -0.8
v 1.9 3.1 -0.8
v 1.9 3.2 -0.8
v 2.1 3.1 -0.8
v 2.1 3.2 -0.8
v 2.3 3.1 -0.8
v 2.3 3.2 -0.8
v 2.8 2.6 -0.8
v 2.8 2.7 -0.8
v 2.9 2.6 -0.8
v 2.9 2.7 -0.8
v 1.1 2.7 -0.9
v 1.1 2.8 -0.9
v 1.2 2.7 -0.9
v 1.2 2.8 -0.9
v 2.8 2.7 -0.9
v 2.8 2.8 -0.9
v 2.9 2.7 -0.9
v 2.9 2.8 -0.9
v 1 2.4 -1
v 1 2.5 -1
v 1.1 2.4 -1
v 1.1 2.5 -1
v 2.9 2.4 -1
v 2.9 2.5 -1
v 3 2.4 -1
v 3 2.5 -1
v 1.1 2.4 -1.1
v 1.1 2.5 -1.1
v 1.2 2.4 -1.1
v 1.2 2.5 -1.1
v 2.8 2.4 -1.1
v 2.8 2.5 -1.1
v 2.9 2.4 -1.1
v 2.9 2.5 -1.1
v 1 2.1 -1.2
v 1 2.2 -1.2
v 1 2.7 -1.2
v 1 2.8 -1.2
v 1.1 2.1 -1.2
v 1.1 2.2 -1.2
v 1.1 2.7 -1.2
v 1.1 2.8 -1.2
v 2.9 2.1 -1.2
v 2.9 2.2 -1.2
v 2.9 2.7 -1.2
v 2.9 2.8 -1.2
v 3 2.1 -1.2
v 3 2.2 -1.2
v 3 2.7 -1.2
v 3 2.8 -1.2
v 1 2.2 -1.3
v 1 2.3 -1.3
v 1 2.6 -1.3
v 1 2.7 -1.3
v 1.1 2.2 -1.3
v 1.1 2.3 -1.3
v 1.1 2.6 -1.3
v 1.1 2.7 -1.3
v 2.9 2.2 -1.3
v 2.9 2.3 -1.3
v 2.9 2.6 -1.3
v 2.9 2.7 -1.3
v 3 2.2 -1.3
v 3 2.3 -1.3
v 3 2.6 -1.3
v 3 2.7 -1.3
v 1 2.3 -1.4
v 1 2.6 -1.4
v 1.1 2.3 -1.4
v 1.1 2.4 -1.4
v 1.1 2.6 -1.4
v 2.9 2.3 -1.4
v 2.9 2.4 -1.4
v 2.9 2.6 -1.4
v 3 2.3 -1.4
v 3 2.6 -1.4
v 1.1 2.4 -2.8
v 1.1 2.6 -2.8
v 1.2 2.4 -2.8
v 1.2 2.6 -2.8
v 2.8 2.4 -2.8
v 2.8 2.6 -2.8
v 2.9 2.4 -2.8
v 2.9 2.6 -2.8
v 1.1 2.6 -2.9
v 1.1 2.7 -2.9
v 1.2 2.6 -2.9
v 1.2 2.7 -2.9
v 2.8 2.6 -2.9
v 2.8 2.7 -2.9
v 2.9 2.6 -2.9
v 2.9 2.7 -2.9
v 1.1 2.7 -3
v 1.1 2.8 -3
v 1.2 2.7 -3
v 1.2 2.8 -3
v 2.8 2.7 -3
v 2.8 2.8 -3
v 2.9 2.7 -3
v 2.9 2.8 -3
v 1 2.4 -3.1
v 1 2.5 -3.1
v 1.1 2.4 -3.1
v 1.1 2.5 -3.1
v 2.9 2.4 -3.1
v 2.9 2.5 -3.1
v 3 2.4 -3.1
v 3 2.5 -3.1
v 1.1 2.4 -3.2
v 1.1 2.5 -3.2
v 1.2 2.4 -3.2
v 1.2 2.5 -3.2
v 2.8 2.4 -3.2
v 2.8 2.5 -3.2
v 2.9 2.4 -3.2
v 2.9 2.5 -3.2
v 1 2.1 -3.3
v 1 2.2 -3.3
v 1 2.7 -3.3
v 1 2.8 -3.3
v 1.1 2.1 -3.3
v 1.1 2.2 -3.3
v 1.1 2.7 -3.3
v 1.1 2.8 -3.3
v 2.9 2.1 -3.3
v 2.9 2.2 -3.3
v 2.9 2.7 -3.3
v 2.9 2.8 -3.3
v 3 2.1 -3.3
v 3 2.2 -3.3
v 3 2.7 -3.3
v 3 2.8 -3.3
v 1 2.2 -3.4
v 1 2.3 -3.4
v 1 2.6 -3.4
v 1 2.7 -3.4
v 1.1 2.2 -3.4
v 1.1 2.3 -3.4
v 1.1 2.6 -3.4
v 1.1 2.7 -3.4
v 1.3 3.1 -3.4
v 1.3 3.9 -3.4
v 2.7 3.1 -3.4
v 2.7 3.9 -3.4
v 2.9 2.2 -3.4
v 2.9 2.3 -3.4
v 2.9 2.6 -3.4
v 2.9 2.7 -3.4
v 3 2.2 -3.4
v 3 2.3 -3.4
v 3 2.6 -3.4
v 3 2.7 -3.4
v 1 2.3 -3.5
v 1 2.6 -3.5
v 1.1 2.3 -3.5
v 1.1 2.4 -3.5
v 1.1 2.6 -3.5
v 2.9 2.3 -3.5
v 2.9 2.4 -3.5
v 2.9 2.6 -3.5
v 3 2.3 -3.5
v 3 2.6 -3.5
v 1.1 2.4 -4
v 1.1 2.8 -4
v 1.1 3 -4
v 1.1 3.1 -4
v 1.5 2.8 -4
v 1.5 3 -4
v 1.9 2.8 -4
v 1.9 2.9 -4
v 2.1 2.8 -4
v 2.1 2.9 -4
v 2.5 2.8 -4
v 2.5 3 -4
v 2.9 2.4 -4
v 2.9 2.8 -4
v 2.9 3 -4
v 2.9 3.1 -4
v 1 2.1 -0.9
v 1.1 2.1 -0.9
v 2.9 2.1 -0.9
v 3 2.1 -0.9
v 1 2.1 -1.2
v 1.1 2.1 -1.2
v 2.9 2.1 -1.2
v 3 2.1 -1.2
v 1 2.1 -3
v 1.1 2.1 -3
v 2.9 2.1 -3
v 3 2.1 -3
v 1 2.1 -3.3
v 1.1 2.1 -3.3
v 2.9 2.1 -3.3
v 3 2.1 -3.3
v 1 2.2 -0.8
v 1.1 2.2 -0.8
v 2.9 2.2 -0.8
v 3 2.2 -0.8
v 1 2.2 -0.9
v 1.1 2.2 -0.9
v 2.9 2.2 -0.9
v 3 2.2 -0.9
v 1 2.2 -1.2
v 1.1 2.2 -1.2
v 2.9 2.2 -1.2
v 3 2.2 -1.2
v 1 2.2 -1.3
v 1.1 2.2 -1.3
v 2.9 2.2 -1.3
v 3 2.2 -1.3
v 1 2.2 -2.9
v 1.1 2.2 -2.9
v 2.9 2.2 -2.9
v 3 2.2 -2.9
v 1 2.2 -3
v 1.1 2.2 -3
v 2.9 2.2 -3
v 3 2.2 -3
v 1 2.2 -3.3
v 1.1 2.2 -3.3
v 2.9 2.2 -3.3
v 3 2.2 -3.3
v 1 2.2 -3.4
v 1.1 2.2 -3.4
v 2.9 2.2 -3.4
v 3 2.2 -3.4
v 1 2.3 -0.7
v 1.1 2.3 -0.7
v 2.9 2.3 -0.7
v 3 2.3 -0.7
v 1 2.3 -0.8
v 1.1 2.3 -0.8
v 2.9 2.3 -0.8
v 3 2.3 -0.8
v 1 2.3 -1.3
v 1.1 2.3 -1.3
v 2.9 2.3 -1.3
v 3 2.3 -1.3
v 1 2.3 -1.4
v 1.1 2.3 -1.4
v 2.9 2.3 -1.4
v 3 2.3 -1.4
v 1 2.3 -2.8
v 1.1 2.3 -2.8
v 2.9 2.3 -2.8
v 3 2.3 -2.8
v 1 2.3 -2.9
v 1.1 2.3 -2.9
v 2.9 2.3 -2.9
v 3 2.3 -2.9
v 1 2.3 -3.4
v 1.1 2.3 -3.4
v 2.9 2.3 -3.4
v 3 2.3 -3.4
v 1 2.3 -3.5
v 1.1 2.3 -3.5
v 2.9 2.3 -3.5
v 3 2.3 -3.5
v 1.1 2.4 0
v 2.9 2.4 0
v 1.1 2.4 -0.7
v 1.2 2.4 -0.7
v 2.8 2.4 -0.7
v 2.9 2.4 -0.7
v 1.1 2.4 -1
v 1.2 2.4 -1
v 2.8 2.4 -1
v 2.9 2.4 -1
v 1.1 2.4 -1.1
v 1.2 2.4 -1.1
v 2.8 2.4 -1.1
v 2.9 2.4 -1.1
v 1.1 2.4 -1.4
v 1.2 2.4 -1.4
v 2.8 2.4 -1.4
v 2.9 2.4 -1.4
v 1.1 2.4 -2.8
v 1.2 2.4 -2.8
v 2.8 2.4 -2.8
v 2.9 2.4 -2.8
v 1.1 2.4 -3.1
v 1.2 2.4 -3.1
v 2.8 2.4 -3.1
v 2.9 2.4 -3.1
v 1.1 2.4 -3.2
v 1.2 2.4 -3.2
v 2.8 2.4 -3.2
v 2.9 2.4 -3.2
v 1.1 2.4 -3.5
v 1.2 2.4 -3.5
v 2.8 2.4 -3.5
v 2.9 2.4 -3.5
v 1.1 2.4 -4
v 2.9 2.4 -4
v 1 2.5 -1
v 1.1 2.5 -1
v 2.9 2.5 -1
v 3 2.5 -1
v 1 2.5 -1.1
v 1.1 2.5 -1.1
v 2.9 2.5 -1.1
v 3 2.5 -1.1
v 1 2.5 -3.1
v 1.1 2.5 -3.1
v 2.9 2.5 -3.1
v 3 2.5 -3.1
v 1 2.5 -3.2
v 1.1 2.5 -3.2
v 2.9 2.5 -3.2
v 3 2.5 -3.2
v 1.1 2.6 -0.7
v 1.2 2.6 -0.7
v 2.8 2.6 -0.7
v 2.9 2.6 -0.7
v 1.1 2.6 -0.8
v 1.2 2.6 -0.8
v 2.8 2.6 -0.8
v 2.9 2.6 -0.8
v 1.1 2.6 -1.3
v 1.2 2.6 -1.3
v 2.8 2.6 -1.3
v 2.9 2.6 -1.3
v 1.1 2.6 -1.4
v 1.2 2.6 -1.4
v 2.8 2.6 -1.4
v 2.9 2.6 -1.4
v 1.1 2.6 -2.8
v 1.2 2.6 -2.8
v 2.8 2.6 -2.8
v 2.9 2.6 -2.8
v 1.1 2.6 -2.9
v 1.2 2.6 -2.9
v 2.8 2.6 -2.9
v 2.9 2.6 -2.9
v 1.1 2.6 -3.4
v 1.2 2.6 -3.4
v 2.8 2.6 -3.4
v 2.9 2.6 -3.4
v 1.1 2.6 -3.5
v 1.2 2.6 -3.5
v 2.8 2.6 -3.5
v 2.9 2.6 -3.5
v 1.1 2.7 -0.8
v 1.2 2.7 -0.8
v 2.8 2.7 -0.8
v 2.9 2.7 -0.8
v 1.1 2.7 -0.9
v 1.2 2.7 -0.9
v 2.8 2.7 -0.9
v 2.9 2.7 -0.9
v 1.1 2.7 -1.2
v 1.2 2.7 -1.2
v 2.8 2.7 -1.2
v 2.9 2.7 -1.2
v 1.1 2.7 -1.3
v 1.2 2.7 -1.3
v 2.8 2.7 -1.3
v 2.9 2.7 -1.3
v 1.1 2.7 -2.9
v 1.2 2.7 -2.9
v 2.8 2.7 -2.9
v 2.9 2.7 -2.9
v 1.1 2.7 -3
v 1.2 2.7 -3
v 2.8 2.7 -3
v 2.9 2.7 -3
v 1.1 2.7 -3.3
v 1.2 2.7 -3.3
v 2.8 2.7 -3.3
v 2.9 2.7 -3.3
v 1.1 2.7 -3.4
v 1.2 2.7 -3.4
v 2.8 2.7 -3.4
v 2.9 2.7 -3.4
v 1.1 2.8 -0.9
v 1.2 2.8 -0.9
v 2.8 2.8 -0.9
v 2.9 2.8 -0.9
v 1.1 2.8 -1.2
v 1.2 2.8 -1.2
v 2.8 2.8 -1.2
v 2.9 2.8 -1.2
v 1.1 2.8 -3
v 1.2 2.8 -3
v 2.8 2.8 -3
v 2.9 2.8 -3
v 1.1 2.8 -3.3
v 1.2 2.8 -3.3
v 2.8 2.8 -3.3
v 2.9 2.8 -3.3
v 1 2.4 -1
v 1.1 2.4 -1
v 2.9 2.4 -1
v 3 2.4 -1
v 1 2.4 -1.1
v 1.1 2.4 -1.1
v 2.9 2.4 -1.1
v 3 2.4 -1.1
v 1 2.4 -3.1
v 1.1 2.4 -3.1
v 2.9 2.4 -3.1
v 3 2.4 -3.1
v 1 2.4 -3.2
v 1.1 2.4 -3.2
v 2.9 2.4 -3.2
v 3 2.4 -3.2
v 1.1 2.5 -1
v 1.2 2.5 -1
v 2.8 2.5 -1
v 2.9 2.5 -1
v 1.1 2.5 -1.1
v 1.2 2.5 -1.1
v 2.8 2.5 -1.1
v 2.9 2.5 -1.1
v 1.1 2.5 -3.1
v 1.2 2.5 -3.1
v 2.8 2.5 -3.1
v 2.9 2.5 -3.1
v 1.1 2.5 -3.2
v 1.2 2.5 -3.2
v 2.8 2.5 -3.2
v 2.9 2.5 -3.2
v 1 2.6 -0.7
v 1.1 2.6 -0.7
v 2.9 2.6 -0.7
v 3 2.6 -0.7
v 1 2.6 -0.8
v 1.1 2.6 -0.8
v 2.9 2.6 -0.8
v 3 2.6 -0.8
v 1 2.6 -1.3
v 1.1 2.6 -1.3
v 2.9 2.6 -1.3
v 3 2.6 -1.3
v 1 2.6 -1.4
v 1.1 2.6 -1.4
v 2.9 2.6 -1.4
v 3 2.6 -1.4
v 1 2.6 -2.8
v 1.1 2.6 -2.8
v 2.9 2.6 -2.8
v 3 2.6 -2.8
v 1 2.6 -2.9
v 1.1 2.6 -2.9
v 2.9 2.6 -2.9
v 3 2.6 -2.9
v 1 2.6 -3.4
v 1.1 2.6 -3.4
v 2.9 2.6 -3.4
v 3 2.6 -3.4
v 1 2.6 -3.5
v 1.1 2.6 -3.5
v 2.9 2.6 -3.5
v 3 2.6 -3.5
v 1 2.7 -0.8
v 1.1 2.7 -0.8
v 2.9 2.7 -0.8
v 3 2.7 -0.8
v 1 2.7 -0.9
v 1.1 2.7 -0.9
v 2.9 2.7 -0.9
v 3 2.7 -0.9
v 1 2.7 -1.2
v 1.1 2.7 -1.2
v 2.9 2.7 -1.2
v 3 2.7 -1.2
v 1 2.7 -1.3
v 1.1 2.7 -1.3
v 2.9 2.7 -1.3
v 3 2.7 -1.3
v 1 2.7 -2.9
v 1.1 2.7 -2.9
v 2.9 2.7 -2.9
v 3 2.7 -2.9
v 1 2.7 -3
v 1.1 2.7 -3
v 2.9 2.7 -3
v 3 2.7 -3
v 1 2.7 -3.3
v 1.1 2.7 -3.3
v 2.9 2.7 -3.3
v 3 2.7 -3.3
v 1 2.7 -3.4
v 1.1 2.7 -3.4
v 2.9 2.7 -3.4
v 3 2.7 -3.4
v 1 2.8 -0.9
v 1.1 2.8 -0.9
v 2.9 2.8 -0.9
v 3 2.8 -0.9
v 1 2.8 -1.2
v 1.1 2.8 -1.2
v 2.9 2.8 -1.2
v 3 2.8 -1.2
v 1 2.8 -3
v 1.1 2.8 -3
v 2.9 2.8 -3
v 3 2.8 -3
v 1 2.8 -3.3
v 1.1 2.8 -3.3
v 2.9 2.8 -3.3
v 3 2.8 -3.3
v 1.1 3.1 0
v 2.9 3.1 0
v 1.7 3.1 -0.3
v 1.9 3.1 -0.3
v 2.1 3.1 -0.3
v 2.3 3.1 -0.3
v 1.7 3.1 -0.8
v 1.9 3.1 -0.8
v 2.1 3.1 -0.8
v 2.3 3.1 -0.8
v 1.3 3.1 -1.1
v 2.7 3.1 -1.1
v 1.3 3.1 -3.4
v 2.7 3.1 -3.4
v 1.1 3.1 -4
v 2.9 3.1 -4
v 1.7 3.2 -0.3
v 1.9 3.2 -0.3
v 2.1 3.2 -0.3
v 2.3 3.2 -0.3
v 1.7 3.2 -0.8
v 1.9 3.2 -0.8
v 2.1 3.2 -0.8
v 2.3 3.2 -0.8
v 1.3 3.9 -1.1
v 2.7 3.9 -1.1
v 1.3 3.9 -3.4
v 2.7 3.9 -3.4

# faces
f 6/5/1 2/5/1 1/5/1
f 7/5/1 2/5/1 6/5/1
f 10/5/1 4/5/1 3/5/1
f 11/5/1 4/5/1 10/5/1
f 14/5/1 8/5/1 7/5/1
f 14/5/1 6/5/1 5/5/1
f 14/5/1 7/5/1 6/5/1
f 15/5/1 8/5/1 14/5/1
f 18/5/1 12/5/1 11/5/1
f 18/5/1 11/5/1 10/5/1
f 18/5/1 10/5/1 9/5/1
f 19/5/1 12/5/1 18/5/1
f 21/5/1 16/5/1 15/5/1
f 21/5/1 15/5/1 14/5/1
f 21/5/1 14/5/1 13/5/1
f 22/5/1 16/5/1 21/5/1
f 23/5/1 20/5/1 19/5/1
f 23/5/1 19/5/1 18/5/1
f 23/5/1 18/5/1 17/5/1
f 24/5/1 20/5/1 23/5/1
f 25/5/1 21/5/1 13/5/1
f 26/5/1 16/5/1 22/5/1
f 27/5/1 23/5/1 17/5/1
f 28/5/1 20/5/1 24/5/1
f 29/5/1 25/5/1 13/5/1
f 29/5/1 26/5/1 25/5/1
f 30/5/1 26/5/1 29/5/1
f 31/5/1 16/5/1 26/5/1
f 31/5/1 26/5/1 30/5/1
f 32/5/1 16/5/1 31/5/1
f 33/5/1 28/5/1 27/5/1
f 33/5/1 27/5/1 17/5/1
f 34/5/1 28/5/1 33/5/1
f 35/5/1 20/5/1 28/5/1
f 35/5/1 28/5/1 34/5/1
f 36/5/1 20/5/1 35/5/1
f 37/5/1 31/5/1 30/5/1
f 38/5/1 31/5/1 37/5/1
f 39/5/1 31/5/1 38/5/1
f 40/5/1 31/5/1 39/5/1
f 41/5/1 35/5/1 34/5/1
f 42/5/1 35/5/1 41/5/1
f 43/5/1 35/5/1 42/5/1
f 44/5/1 35/5/1 43/5/1
f 45/5/1 39/5/1 38/5/1
f 46/5/1 39/5/1 45/5/1
f 47/5/1 43/5/1 42/5/1
f 48/5/1 43/5/1 47/5/1
f 59/1/1 52/1/1 51/1/1
f 60/1/1 52/1/1 59/1/1
f 61/1/1 56/1/1 55/1/1
f 62/1/1 56/1/1 61/1/1
f 63/1/1 50/1/1 49/1/1
f 66/1/1 54/1/1 53/1/1
f 67/1/1 54/1/1 66/1/1
f 70/1/1 58/1/1 57/1/1
f 71/1/1 64/1/1 63/1/1
f 74/1/1 68/1/1 67/1/1
f 74/1/1 67/1/1 66/1/1
f 74/1/1 66/1/1 65/1/1
f 75/1/1 68/1/1 74/1/1
f 78/1/1 70/1/1 69/1/1
f 79/1/1 72/1/1 71/1/1
f 79/1/1 71/1/1 63/1/1
f 79/1/1 63/1/1 49/1/1
f 80/1/1 72/1/1 79/1/1
f 81/1/1 72/1/1 80/1/1
f 82/1/1 76/1/1 75/1/1
f 82/1/1 74/1/1 73/1/1
f 82/1/1 75/1/1 74/1/1
f 83/1/1 76/1/1 82/1/1
f 84/1/1 78/1/1 77/1/1
f 85/1/1 70/1/1 78/1/1
f 85/1/1 58/1/1 70/1/1
f 85/1/1 78/1/1 84/1/1
f 86/1/1 58/1/1 85/1/1
f 87/4/1 80/4/1 79/4/1
f 88/1/1 83/1/1 82/1/1
f 88/4/1 80/4/1 87/4/1
f 88/1/1 84/1/1 83/1/1
f 88/1/1 81/1/1 80/1/1
f 88/1/1 85/1/1 84/1/1
f 88/1/1 82/1/1 81/1/1
f 89/4/1 86/4/1 85/4/1
f 89/1/1 85/1/1 88/1/1
f 90/4/1 86/4/1 89/4/1
f 91/1/1 88/1/1 87/1/1
f 91/1/1 89/1/1 88/1/1
f 91/1/1 90/1/1 89/1/1
f 92/1/1 90/1/1 91/1/1
f 101/1/1 94/1/1 93/1/1
f 102/1/1 96/1/1 95/1/1
f 103/1/1 98/1/1 97/1/1
f 104/1/1 100/1/1 99/1/1
f 105/1/1 101/1/1 93/1/1
f 105/1/1 102/1/1 101/1/1
f 106/1/1 102/1/1 105/1/1
f 107/1/1 96/1/1 102/1/1
f 107/1/1 102/1/1 106/1/1
f 108/1/1 96/1/1 107/1/1
f 109/1/1 103/1/1 97/1/1
f 109/1/1 104/1/1 103/1/1
f 110/1/1 104/1/1 109/1/1
f 111/1/1 100/1/1 104/1/1
f 111/1/1 104/1/1 110/1/1
f 112/1/1 100/1/1 111/1/1
f 113/1/1 107/1/1 106/1/1
f 114/1/1 107/1/1 113/1/1
f 115/1/1 107/1/1 114/1/1
f 116/1/1 107/1/1 115/1/1
f 117/1/1 111/1/1 110/1/1
f 118/1/1 111/1/1 117/1/1
f 119/1/1 111/1/1 118/1/1
f 120/1/1 111/1/1 119/1/1
f 121/1/1 115/1/1 114/1/1
f 122/1/1 115/1/1 121/1/1
f 123/1/1 119/1/1 118/1/1
f 124/1/1 119/1/1 123/1/1
f 127/1/1 126/1/1 125/1/1
f 128/1/1 126/1/1 127/1/1
f 129/1/1 126/1/1 128/1/1
f 130/1/1 126/1/1 129/1/1
f 131/1/1 127/1/1 125/1/1
f 131/2/1 128/2/1 127/2/1
f 132/2/1 128/2/1 131/2/1
f 133/1/1 132/1/1 131/1/1
f 133/2/1 128/2/1 132/2/1
f 134/2/1 128/2/1 133/2/1
f 135/1/1 134/1/1 133/1/1
f 135/2/1 128/2/1 134/2/1
f 136/1/1 129/1/1 128/1/1
f 136/2/1 128/2/1 135/2/1
f 137/2/1 130/2/1 129/2/1
f 137/1/1 129/1/1 136/1/1
f 138/1/1 126/1/1 130/1/1
f 138/2/1 130/2/1 137/2/1
f 139/1/1 137/1/1 136/1/1
f 139/1/1 136/1/1 135/1/1
f 139/1/1 138/1/1 137/1/1
f 139/1/1 133/1/1 131/1/1
f 139/1/1 131/1/1 125/1/1
f 139/1/1 135/1/1 133/1/1
f 140/1/1 126/1/1 138/1/1
f 140/1/1 138/1/1 139/1/1
f 143/1/1 142/1/1 141/1/1
f 144/1/1 142/1/1 143/1/1
f 147/1/1 146/1/1 145/1/1
f 148/1/1 146/1/1 147/1/1
f 154/5/1 150/5/1 149/5/1
f 155/5/1 150/5/1 154/5/1
f 158/5/1 152/5/1 151/5/1
f 159/5/1 152/5/1 158/5/1
f 162/5/1 156/5/1 155/5/1
f 162/5/1 154/5/1 153/5/1
f 162/5/1 155/5/1 154/5/1
f 163/5/1 156/5/1 162/5/1
f 166/5/1 160/5/1 159/5/1
f 166/5/1 159/5/1 158/5/1
f 166/5/1 158/5/1 157/5/1
f 167/5/1 160/5/1 166/5/1
f 169/5/1 164/5/1 163/5/1
f 169/5/1 163/5/1 162/5/1
f 169/5/1 162/5/1 161/5/1
f 170/5/1 164/5/1 169/5/1
f 171/5/1 164/5/1 170/5/1
f 172/5/1 164/5/1 171/5/1
f 173/5/1 168/5/1 167/5/1
f 173/5/1 167/5/1 166/5/1
f 173/5/1 166/5/1 165/5/1
f 174/5/1 168/5/1 173/5/1
f 175/5/1 168/5/1 174/5/1
f 176/5/1 168/5/1 175/5/1
f 177/5/1 170/5/1 169/5/1
f 178/5/1 172/5/1 171/5/1
f 179/5/1 174/5/1 173/5/1
f 180/5/1 176/5/1 175/5/1
f 181/5/1 177/5/1 169/5/1
f 181/5/1 178/5/1 177/5/1
f 182/5/1 178/5/1 181/5/1
f 183/5/1 172/5/1 178/5/1
f 183/5/1 178/5/1 182/5/1
f 184/5/1 172/5/1 183/5/1
f 185/5/1 180/5/1 179/5/1
f 185/5/1 179/5/1 173/5/1
f 186/5/1 180/5/1 185/5/1
f 187/5/1 176/5/1 180/5/1
f 187/5/1 180/5/1 186/5/1
f 188/5/1 176/5/1 187/5/1
f 189/5/1 183/5/1 182/5/1
f 190/5/1 183/5/1 189/5/1
f 191/5/1 183/5/1 190/5/1
f 192/5/1 183/5/1 191/5/1
f 193/5/1 187/5/1 186/5/1
f 194/5/1 187/5/1 193/5/1
f 195/5/1 187/5/1 194/5/1
f 196/5/1 187/5/1 195/5/1
f 197/5/1 191/5/1 190/5/1
f 198/5/1 191/5/1 197/5/1
f 199/5/1 195/5/1 194/5/1
f 200/5/1 195/5/1 199/5/1
f 201/5/2 202/5/2 206/5/2
f 206/5/2 202/5/2 207/5/2
f 203/5/2 204/5/2 210/5/2
f 210/5/2 204/5/2 211/5/2
f 207/5/2 208/5/2 214/5/2
f 205/5/2 206/5/2 214/5/2
f 206/5/2 207/5/2 214/5/2
f 214/5/2 208/5/2 215/5/2
f 211/5/2 212/5/2 218/5/2
f 210/5/2 211/5/2 218/5/2
f 209/5/2 210/5/2 218/5/2
f 218/5/2 212/5/2 219/5/2
f 215/5/2 216/5/2 221/5/2
f 214/5/2 215/5/2 221/5/2
f 213/5/2 214/5/2 221/5/2
f 221/5/2 216/5/2 222/5/2
f 222/5/2 216/5/2 223/5/2
f 223/5/2 216/5/2 224/5/2
f 219/5/2 220/5/2 225/5/2
f 218/5/2 219/5/2 225/5/2
f 217/5/2 218/5/2 225/5/2
f 225/5/2 220/5/2 226/5/2
f 226/5/2 220/5/2 227/5/2
f 227/5/2 220/5/2 228/5/2
f 221/5/2 222/5/2 229/5/2
f 223/5/2 224/5/2 230/5/2
f 225/5/2 226/5/2 231/5/2
f 227/5/2 228/5/2 232/5/2
f 221/5/2 229/5/2 233/5/2
f 229/5/2 230/5/2 233/5/2
f 233/5/2 230/5/2 234/5/2
f 230/5/2 224/5/2 235/5/2
f 234/5/2 230/5/2 235/5/2
f 235/5/2 224/5/2 236/5/2
f 231/5/2 232/5/2 237/5/2
f 225/5/2 231/5/2 237/5/2
f 237/5/2 232/5/2 238/5/2
f 232/5/2 228/5/2 239/5/2
f 238/5/2 232/5/2 239/5/2
f 239/5/2 228/5/2 240/5/2
f 234/5/2 235/5/2 241/5/2
f 241/5/2 235/5/2 242/5/2
f 242/5/2 235/5/2 243/5/2
f 243/5/2 235/5/2 244/5/2
f 238/5/2 239/5/2 245/5/2
f 245/5/2 239/5/2 246/5/2
f 246/5/2 239/5/2 247/5/2
f 247/5/2 239/5/2 248/5/2
f 242/5/2 243/5/2 249/5/2
f 249/5/2 243/5/2 250/5/2
f 246/5/2 247/5/2 251/5/2
f 251/5/2 247/5/2 252/5/2
f 253/1/2 254/1/2 255/1/2
f 255/1/2 254/1/2 256/1/2
f 257/1/2 258/1/2 259/1/2
f 259/1/2 258/1/2 260/1/2
f 261/1/2 262/1/2 263/1/2
f 263/1/2 262/1/2 264/1/2
f 264/1/2 262/1/2 265/1/2
f 265/1/2 262/1/2 266/1/2
f 261/1/2 263/1/2 267/1/2
f 263/2/2 264/2/2 267/2/2
f 267/2/2 264/2/2 268/2/2
f 267/1/2 268/1/2 269/1/2
f 268/2/2 264/2/2 269/2/2
f 269/2/2 264/2/2 270/2/2
f 269/1/2 270/1/2 271/1/2
f 270/2/2 264/2/2 271/2/2
f 264/1/2 265/1/2 272/1/2
f 271/2/2 264/2/2 272/2/2
f 265/2/2 266/2/2 273/2/2
f 272/1/2 265/1/2 273/1/2
f 266/1/2 262/1/2 274/1/2
f 273/2/2 266/2/2 274/2/2
f 272/1/2 273/1/2 275/1/2
f 271/1/2 272/1/2 275/1/2
f 273/1/2 274/1/2 275/1/2
f 267/1/2 269/1/2 275/1/2
f 261/1/2 267/1/2 275/1/2
f 269/1/2 271/1/2 275/1/2
f 274/1/2 262/1/2 276/1/2
f 275/1/2 274/1/2 276/1/2
f 277/1/2 278/1/2 285/1/2
f 279/1/2 280/1/2 286/1/2
f 281/1/2 282/1/2 287/1/2
f 283/1/2 284/1/2 288/1/2
f 277/1/2 285/1/2 289/1/2
f 285/1/2 286/1/2 289/1/2
f 289/1/2 286/1/2 290/1/2
f 286/1/2 280/1/2 291/1/2
f 290/1/2 286/1/2 291/1/2
f 291/1/2 280/1/2 292/1/2
f 281/1/2 287/1/2 293/1/2
f 287/1/2 288/1/2 293/1/2
f 293/1/2 288/1/2 294/1/2
f 288/1/2 284/1/2 295/1/2
f 294/1/2 288/1/2 295/1/2
f 295/1/2 284/1/2 296/1/2
f 290/1/2 291/1/2 297/1/2
f 297/1/2 291/1/2 298/1/2
f 298/1/2 291/1/2 299/1/2
f 299/1/2 291/1/2 300/1/2
f 294/1/2 295/1/2 301/1/2
f 301/1/2 295/1/2 302/1/2
f 302/1/2 295/1/2 303/1/2
f 303/1/2 295/1/2 304/1/2
f 298/1/2 299/1/2 305/1/2
f 305/1/2 299/1/2 306/1/2
f 302/1/2 303/1/2 307/1/2
f 307/1/2 303/1/2 308/1/2
f 311/1/2 312/1/2 319/1/2
f 319/1/2 312/1/2 320/1/2
f 315/1/2 316/1/2 321/1/2
f 321/1/2 316/1/2 322/1/2
f 309/1/2 310/1/2 323/1/2
f 313/1/2 314/1/2 326/1/2
f 326/1/2 314/1/2 327/1/2
f 317/1/2 318/1/2 330/1/2
f 323/1/2 324/1/2 331/1/2
f 327/1/2 328/1/2 334/1/2
f 326/1/2 327/1/2 334/1/2
f 325/1/2 326/1/2 334/1/2
f 334/1/2 328/1/2 335/1/2
f 329/1/2 330/1/2 338/1/2
f 331/1/2 332/1/2 339/1/2
f 323/1/2 331/1/2 339/1/2
f 309/1/2 323/1/2 339/1/2
f 339/1/2 332/1/2 340/1/2
f 340/1/2 332/1/2 341/1/2
f 335/1/2 336/1/2 342/1/2
f 333/1/2 334/1/2 342/1/2
f 334/1/2 335/1/2 342/1/2
f 342/1/2 336/1/2 343/1/2
f 337/1/2 338/1/2 344/1/2
f 338/1/2 330/1/2 345/1/2
f 330/1/2 318/1/2 345/1/2
f 344/1/2 338/1/2 345/1/2
f 345/1/2 318/1/2 346/1/2
f 339/4/2 340/4/2 347/4/2
f 342/1/2 343/1/2 348/1/2
f 347/4/2 340/4/2 348/4/2
f 343/1/2 344/1/2 348/1/2
f 340/1/2 341/1/2 348/1/2
f 344/1/2 345/1/2 348/1/2
f 341/1/2 342/1/2 348/1/2
f 345/4/2 346/4/2 349/4/2
f 348/1/2 345/1/2 349/1/2
f 349/4/2 346/4/2 350/4/2
f 347/1/2 348/1/2 351/1/2
f 348/1/2 349/1/2 351/1/2
f 349/1/2 350/1/2 351/1/2
f 351/1/2 350/1/2 352/1/2
f 353/5/2 354/5/2 358/5/2
f 358/5/2 354/5/2 359/5/2
f 355/5/2 356/5/2 362/5/2
f 362/5/2 356/5/2 363/5/2
f 359/5/2 360/5/2 366/5/2
f 357/5/2 358/5/2 366/5/2
f 358/5/2 359/5/2 366/5/2
f 366/5/2 360/5/2 367/5/2
f 363/5/2 364/5/2 370/5/2
f 362/5/2 363/5/2 370/5/2
f 361/5/2 362/5/2 370/5/2
f 370/5/2 364/5/2 371/5/2
f 367/5/2 368/5/2 373/5/2
f 366/5/2 367/5/2 373/5/2
f 365/5/2 366/5/2 373/5/2
f 373/5/2 368/5/2 374/5/2
f 371/5/2 372/5/2 375/5/2
f 370/5/2 371/5/2 375/5/2
f 369/5/2 370/5/2 375/5/2
f 375/5/2 372/5/2 376/5/2
f 365/5/2 373/5/2 377/5/2
f 374/5/2 368/5/2 378/5/2
f 369/5/2 375/5/2 379/5/2
f 376/5/2 372/5/2 380/5/2
f 365/5/2 377/5/2 381/5/2
f 377/5/2 378/5/2 381/5/2
f 381/5/2 378/5/2 382/5/2
f 378/5/2 368/5/2 383/5/2
f 382/5/2 378/5/2 383/5/2
f 383/5/2 368/5/2 384/5/2
f 379/5/2 380/5/2 385/5/2
f 369/5/2 379/5/2 385/5/2
f 385/5/2 380/5/2 386/5/2
f 380/5/2 372/5/2 387/5/2
f 386/5/2 380/5/2 387/5/2
f 387/5/2 372/5/2 388/5/2
f 382/5/2 383/5/2 389/5/2
f 389/5/2 383/5/2 390/5/2
f 390/5/2 383/5/2 391/5/2
f 391/5/2 383/5/2 392/5/2
f 386/5/2 387/5/2 393/5/2
f 393/5/2 387/5/2 394/5/2
f 394/5/2 387/5/2 395/5/2
f 395/5/2 387/5/2 396/5/2
f 390/5/2 391/5/2 397/5/2
f 397/5/2 391/5/2 398/5/2
f 394/5/2 395/5/2 399/5/2
f 399/5/2 395/5/2 400/5/2
f 405/1/3 402/1/3 401/1/3
f 406/4/3 403/4/3 402/4/3
f 406/1/3 402/1/3 405/1/3
f 407/1/3 405/1/3 401/1/3
f 407/4/3 406/4/3 405/4/3
f 408/1/3 404/1/3 403/1/3
f 408/4/3 406/4/3 407/4/3
f 408/4/3 403/4/3 406/4/3
f 409/1/3 407/1/3 401/1/3
f 409/1/3 408/1/3 407/1/3
f 410/1/3 404/1/3 408/1/3
f 410/1/3 408/1/3 409/1/3
f 411/1/3 409/1/3 401/1/3
f 411/4/3 410/4/3 409/4/3
f 412/4/3 410/4/3 411/4/3
f 413/1/3 411/1/3 401/1/3
f 413/1/3 412/1/3 411/1/3
f 414/4/3 410/4/3 412/4/3
f 414/1/3 412/1/3 413/1/3
f 415/1/3 404/1/3 410/1/3
f 415/4/3 410/4/3 414/4/3
f 416/1/3 404/1/3 415/1/3
f 419/1/3 418/1/3 417/1/3
f 420/1/3 418/1/3 419/1/3
f 423/1/3 422/1/3 421/1/3
f 424/1/3 422/1/3 423/1/3
f 427/5/3 426/5/3 425/5/3
f 428/5/3 426/5/3 427/5/3
f 429/5/3 426/5/3 428/5/3
f 433/5/3 431/5/3 430/5/3
f 433/5/3 432/5/3 431/5/3
f 434/5/3 432/5/3 433/5/3
f 439/5/3 436/5/3 435/5/3
f 440/5/3 436/5/3 439/5/3
f 441/5/3 438/5/3 437/5/3
f 442/5/3 438/5/3 441/5/3
f 447/5/3 444/5/3 443/5/3
f 448/5/3 444/5/3 447/5/3
f 449/5/3 446/5/3 445/5/3
f 450/5/3 446/5/3 449/5/3
f 455/5/3 452/5/3 451/5/3
f 456/5/3 452/5/3 455/5/3
f 457/5/3 454/5/3 453/5/3
f 458/5/3 454/5/3 457/5/3
f 463/5/3 460/5/3 459/5/3
f 464/5/3 460/5/3 463/5/3
f 465/5/3 462/5/3 461/5/3
f 466/5/3 462/5/3 465/5/3
f 469/1/3 468/1/3 467/1/3
f 470/1/3 468/1/3 469/1/3
f 473/1/3 472/1/3 471/1/3
f 474/1/3 472/1/3 473/1/3
f 477/5/3 476/5/3 475/5/3
f 478/5/3 476/5/3 477/5/3
f 481/1/3 480/1/3 479/1/3
f 482/1/3 480/1/3 481/1/3
f 483/1/3 481/1/3 479/1/3
f 483/2/3 482/2/3 481/2/3
f 484/1/3 480/1/3 482/1/3
f 484/2/3 482/2/3 483/2/3
f 485/1/3 483/1/3 479/1/3
f 485/1/3 484/1/3 483/1/3
f 486/1/3 480/1/3 484/1/3
f 486/1/3 484/1/3 485/1/3
f 489/5/3 488/5/3 487/5/3
f 490/5/3 488/5/3 489/5/3
f 493/1/3 492/1/3 491/1/3
f 494/1/3 492/1/3 493/1/3
f 497/1/3 496/1/3 495/1/3
f 498/1/3 496/1/3 497/1/3
f 501/1/3 500/1/3 499/1/3
f 502/1/3 500/1/3 501/1/3
f 505/1/3 504/1/3 503/1/3
f 506/1/3 504/1/3 505/1/3
f 509/1/3 508/1/3 507/1/3
f 510/1/3 508/1/3 509/1/3
f 513/1/3 512/1/3 511/1/3
f 514/1/3 512/1/3 513/1/3
f 517/5/3 516/5/3 515/5/3
f 518/5/3 516/5/3 517/5/3
f 519/5/3 516/5/3 518/5/3
f 523/5/3 521/5/3 520/5/3
f 523/5/3 522/5/3 521/5/3
f 524/5/3 522/5/3 523/5/3
f 529/5/3 526/5/3 525/5/3
f 530/5/3 526/5/3 529/5/3
f 531/5/3 528/5/3 527/5/3
f 532/5/3 528/5/3 531/5/3
f 537/5/3 534/5/3 533/5/3
f 538/5/3 534/5/3 537/5/3
f 539/5/3 536/5/3 535/5/3
f 540/5/3 536/5/3 539/5/3
f 545/5/3 542/5/3 541/5/3
f 546/5/3 542/5/3 545/5/3
f 547/5/3 544/5/3 543/5/3
f 548/5/3 544/5/3 547/5/3
f 553/5/3 550/5/3 549/5/3
f 554/5/3 550/5/3 553/5/3
f 555/5/3 552/5/3 551/5/3
f 556/5/3 552/5/3 555/5/3
f 559/1/3 558/1/3 557/1/3
f 560/1/3 558/1/3 559/1/3
f 563/1/3 562/1/3 561/1/3
f 564/1/3 562/1/3 563/1/3
f 567/5/3 566/5/3 565/5/3
f 568/5/3 566/5/3 567/5/3
f 571/5/3 570/5/3 569/5/3
f 572/5/3 570/5/3 571/5/3
f 575/1/3 574/1/3 573/1/3
f 576/1/3 574/1/3 575/1/3
f 579/1/3 578/1/3 577/1/3
f 580/1/3 578/1/3 579/1/3
f 583/1/3 582/1/3 581/1/3
f 584/1/3 582/1/3 583/1/3
f 587/1/3 586/1/3 585/1/3
f 588/1/3 586/1/3 587/1/3
f 591/1/3 590/1/3 589/1/3
f 592/1/3 590/1/3 591/1/3
f 595/1/3 594/1/3 593/1/3
f 596/1/3 594/1/3 595/1/3
f 597/1/4 598/1/4 599/1/4
f 599/1/4 598/1/4 600/1/4
f 601/1/4 602/1/4 603/1/4
f 603/1/4 602/1/4 604/1/4
f 605/1/4 606/1/4 607/1/4
f 607/1/4 606/1/4 608/1/4
f 609/1/4 610/1/4 611/1/4
f 611/1/4 610/1/4 612/1/4
f 613/1/4 614/1/4 615/1/4
f 615/1/4 614/1/4 616/1/4
f 617/1/4 618/1/4 619/1/4
f 619/1/4 618/1/4 620/1/4
f 621/1/4 622/1/4 623/1/4
f 623/1/4 622/1/4 624/1/4
f 625/1/4 626/1/4 627/1/4
f 627/1/4 626/1/4 628/1/4
f 629/5/4 630/5/4 631/5/4
f 631/5/4 630/5/4 632/5/4
f 633/5/4 634/5/4 635/5/4
f 635/5/4 634/5/4 636/5/4
f 637/1/4 638/1/4 639/1/4
f 639/1/4 638/1/4 640/1/4
f 641/1/4 642/1/4 643/1/4
f 643/1/4 642/1/4 644/1/4
f 645/5/4 646/5/4 649/5/4
f 649/5/4 646/5/4 650/5/4
f 647/5/4 648/5/4 651/5/4
f 651/5/4 648/5/4 652/5/4
f 653/5/4 654/5/4 657/5/4
f 657/5/4 654/5/4 658/5/4
f 655/5/4 656/5/4 659/5/4
f 659/5/4 656/5/4 660/5/4
f 661/5/4 662/5/4 665/5/4
f 665/5/4 662/5/4 666/5/4
f 663/5/4 664/5/4 667/5/4
f 667/5/4 664/5/4 668/5/4
f 669/5/4 670/5/4 673/5/4
f 673/5/4 670/5/4 674/5/4
f 671/5/4 672/5/4 675/5/4
f 675/5/4 672/5/4 676/5/4
f 677/5/4 678/5/4 679/5/4
f 679/5/4 678/5/4 680/5/4
f 680/5/4 678/5/4 681/5/4
f 682/5/4 683/5/4 685/5/4
f 683/5/4 684/5/4 685/5/4
f 685/5/4 684/5/4 686/5/4
f 687/1/4 688/1/4 689/1/4
f 689/1/4 688/1/4 690/1/4
f 691/1/4 692/1/4 693/1/4
f 693/1/4 692/1/4 694/1/4
f 695/1/4 696/1/4 697/1/4
f 697/1/4 696/1/4 698/1/4
f 699/1/4 700/1/4 701/1/4
f 701/1/4 700/1/4 702/1/4
f 703/1/4 704/1/4 705/1/4
f 705/1/4 704/1/4 706/1/4
f 707/1/4 708/1/4 709/1/4
f 709/1/4 708/1/4 710/1/4
f 711/5/4 712/5/4 713/5/4
f 713/5/4 712/5/4 714/5/4
f 715/5/4 716/5/4 717/5/4
f 717/5/4 716/5/4 718/5/4
f 719/1/4 720/1/4 721/1/4
f 721/1/4 720/1/4 722/1/4
f 723/1/4 724/1/4 725/1/4
f 725/1/4 724/1/4 726/1/4
f 727/5/4 728/5/4 731/5/4
f 731/5/4 728/5/4 732/5/4
f 729/5/4 730/5/4 733/5/4
f 733/5/4 730/5/4 734/5/4
f 735/5/4 736/5/4 739/5/4
f 739/5/4 736/5/4 740/5/4
f 737/5/4 738/5/4 741/5/4
f 741/5/4 738/5/4 742/5/4
f 743/5/4 744/5/4 747/5/4
f 747/5/4 744/5/4 748/5/4
f 745/5/4 746/5/4 749/5/4
f 749/5/4 746/5/4 750/5/4
f 751/1/4 752/1/4 753/1/4
f 753/1/4 752/1/4 754/1/4
f 755/5/4 756/5/4 759/5/4
f 759/5/4 756/5/4 760/5/4
f 757/5/4 758/5/4 761/5/4
f 761/5/4 758/5/4 762/5/4
f 763/5/4 764/5/4 765/5/4
f 765/5/4 764/5/4 766/5/4
f 766/5/4 764/5/4 767/5/4
f 768/5/4 769/5/4 771/5/4
f 769/5/4 770/5/4 771/5/4
f 771/5/4 770/5/4 772/5/4
f 773/1/4 774/1/4 777/1/4
f 774/4/4 775/4/4 777/4/4
f 775/1/4 776/1/4 778/1/4
f 777/4/4 775/4/4 778/4/4
f 773/1/4 777/1/4 779/1/4
f 777/1/4 778/1/4 779/1/4
f 779/1/4 778/1/4 780/1/4
f 773/1/4 779/1/4 781/1/4
f 779/3/4 780/3/4 781/3/4
f 780/1/4 778/1/4 782/1/4
f 781/3/4 780/3/4 782/3/4
f 773/1/4 781/1/4 783/1/4
f 781/1/4 782/1/4 783/1/4
f 778/1/4 776/1/4 784/1/4
f 783/1/4 782/1/4 784/1/4
f 782/1/4 778/1/4 784/1/4
f 773/1/4 783/1/4 785/1/4
f 783/4/4 784/4/4 786/4/4
f 785/1/4 783/1/4 786/1/4
f 784/1/4 776/1/4 787/1/4
f 786/4/4 784/4/4 787/4/4
f 787/1/4 776/1/4 788/1/4
f 793/5/5 790/5/5 789/5/5
f 794/5/5 790/5/5 793/5/5
f 795/5/5 792/5/5 791/5/5
f 796/5/5 792/5/5 795/5/5
f 801/5/5 798/5/5 797/5/5
f 802/5/5 798/5/5 801/5/5
f 803/5/5 800/5/5 799/5/5
f 804/5/5 800/5/5 803/5/5
f 809/5/5 806/5/5 805/5/5
f 810/5/5 806/5/5 809/5/5
f 811/5/5 808/5/5 807/5/5
f 812/5/5 808/5/5 811/5/5
f 817/5/5 814/5/5 813/5/5
f 818/5/5 814/5/5 817/5/5
f 819/5/5 816/5/5 815/5/5
f 820/5/5 816/5/5 819/5/5
f 825/5/5 822/5/5 821/5/5
f 826/5/5 822/5/5 825/5/5
f 827/5/5 824/5/5 823/5/5
f 828/5/5 824/5/5 827/5/5
f 833/5/5 830/5/5 829/5/5
f 834/5/5 830/5/5 833/5/5
f 835/5/5 832/5/5 831/5/5
f 836/5/5 832/5/5 835/5/5
f 841/5/5 838/5/5 837/5/5
f 842/5/5 838/5/5 841/5/5
f 843/5/5 840/5/5 839/5/5
f 844/5/5 840/5/5 843/5/5
f 849/5/5 846/5/5 845/5/5
f 850/5/5 846/5/5 849/5/5
f 851/5/5 848/5/5 847/5/5
f 852/5/5 848/5/5 851/5/5
f 857/5/5 854/5/5 853/5/5
f 858/5/5 854/5/5 857/5/5
f 859/5/5 856/5/5 855/5/5
f 860/5/5 856/5/5 859/5/5
f 865/5/5 862/5/5 861/5/5
f 866/5/5 862/5/5 865/5/5
f 867/5/5 864/5/5 863/5/5
f 868/5/5 864/5/5 867/5/5
f 871/1/5 870/1/5 869/1/5
f 872/1/5 870/1/5 871/1/5
f 873/1/5 870/1/5 872/1/5
f 874/1/5 870/1/5 873/1/5
f 876/1/5 873/1/5 872/1/5
f 877/1/5 873/1/5 876/1/5
f 879/1/5 876/1/5 875/1/5
f 879/1/5 878/1/5 877/1/5
f 879/1/5 877/1/5 876/1/5
f 880/1/5 878/1/5 879/1/5
f 881/1/5 878/1/5 880/1/5
f 882/1/5 878/1/5 881/1/5
f 884/1/5 881/1/5 880/1/5
f 885/1/5 881/1/5 884/1/5
f 887/1/5 884/1/5 883/1/5
f 887/1/5 886/1/5 885/1/5
f 887/1/5 885/1/5 884/1/5
f 888/1/5 886/1/5 887/1/5
f 889/1/5 886/1/5 888/1/5
f 890/1/5 886/1/5 889/1/5
f 892/1/5 889/1/5 888/1/5
f 893/1/5 889/1/5 892/1/5
f 895/1/5 892/1/5 891/1/5
f 895/1/5 894/1/5 893/1/5
f 895/1/5 893/1/5 892/1/5
f 896/1/5 894/1/5 895/1/5
f 897/1/5 894/1/5 896/1/5
f 898/1/5 894/1/5 897/1/5
f 900/1/5 897/1/5 896/1/5
f 901/1/5 897/1/5 900/1/5
f 903/1/5 900/1/5 899/1/5
f 903/1/5 902/1/5 901/1/5
f 903/1/5 901/1/5 900/1/5
f 904/1/5 902/1/5 903/1/5
f 909/5/5 906/5/5 905/5/5
f 910/5/5 906/5/5 909/5/5
f 911/5/5 908/5/5 907/5/5
f 912/5/5 908/5/5 911/5/5
f 917/5/5 914/5/5 913/5/5
f 918/5/5 914/5/5 917/5/5
f 919/5/5 916/5/5 915/5/5
f 920/5/5 916/5/5 919/5/5
f 925/1/5 922/1/5 921/1/5
f 926/1/5 922/1/5 925/1/5
f 927/1/5 924/1/5 923/1/5
f 928/1/5 924/1/5 927/1/5
f 933/1/5 930/1/5 929/1/5
f 934/1/5 930/1/5 933/1/5
f 935/1/5 932/1/5 931/1/5
f 936/1/5 932/1/5 935/1/5
f 941/1/5 938/1/5 937/1/5
f 942/1/5 938/1/5 941/1/5
f 943/1/5 940/1/5 939/1/5
f 944/1/5 940/1/5 943/1/5
f 949/1/5 946/1/5 945/1/5
f 950/1/5 946/1/5 949/1/5
f 951/1/5 948/1/5 947/1/5
f 952/1/5 948/1/5 951/1/5
f 957/1/5 954/1/5 953/1/5
f 958/1/5 954/1/5 957/1/5
f 959/1/5 956/1/5 955/1/5
f 960/1/5 956/1/5 959/1/5
f 965/1/5 962/1/5 961/1/5
f 966/1/5 962/1/5 965/1/5
f 967/1/5 964/1/5 963/1/5
f 968/1/5 964/1/5 967/1/5
f 973/1/5 970/1/5 969/1/5
f 974/1/5 970/1/5 973/1/5
f 975/1/5 972/1/5 971/1/5
f 976/1/5 972/1/5 975/1/5
f 981/1/5 978/1/5 977/1/5
f 982/1/5 978/1/5 981/1/5
f 983/1/5 980/1/5 979/1/5
f 984/1/5 980/1/5 983/1/5
f 989/1/5 986/1/5 985/1/5
f 990/1/5 986/1/5 989/1/5
f 991/1/5 988/1/5 987/1/5
f 992/1/5 988/1/5 991/1/5
f 997/1/5 994/1/5 993/1/5
f 998/1/5 994/1/5 997/1/5
f 999/1/5 996/1/5 995/1/5
f 1000/1/5 996/1/5 999/1/5
f 1001/5/6 1002/5/6 1005/5/6
f 1005/5/6 1002/5/6 1006/5/6
f 1003/5/6 1004/5/6 1007/5/6
f 1007/5/6 1004/5/6 1008/5/6
f 1009/5/6 1010/5/6 1013/5/6
f 1013/5/6 1010/5/6 1014/5/6
f 1011/5/6 1012/5/6 1015/5/6
f 1015/5/6 1012/5/6 1016/5/6
f 1017/1/6 1018/1/6 1021/1/6
f 1021/1/6 1018/1/6 1022/1/6
f 1019/1/6 1020/1/6 1023/1/6
f 1023/1/6 1020/1/6 1024/1/6
f 1025/1/6 1026/1/6 1029/1/6
f 1029/1/6 1026/1/6 1030/1/6
f 1027/1/6 1028/1/6 1031/1/6
f 1031/1/6 1028/1/6 1032/1/6
f 1033/5/6 1034/5/6 1037/5/6
f 1037/5/6 1034/5/6 1038/5/6
f 1035/5/6 1036/5/6 1039/5/6
f 1039/5/6 1036/5/6 1040/5/6
f 1041/5/6 1042/5/6 1045/5/6
f 1045/5/6 1042/5/6 1046/5/6
f 1043/5/6 1044/5/6 1047/5/6
f 1047/5/6 1044/5/6 1048/5/6
f 1049/5/6 1050/5/6 1053/5/6
f 1053/5/6 1050/5/6 1054/5/6
f 1051/5/6 1052/5/6 1055/5/6
f 1055/5/6 1052/5/6 1056/5/6
f 1057/5/6 1058/5/6 1061/5/6
f 1061/5/6 1058/5/6 1062/5/6
f 1059/5/6 1060/5/6 1063/5/6
f 1063/5/6 1060/5/6 1064/5/6
f 1065/5/6 1066/5/6 1069/5/6
f 1069/5/6 1066/5/6 1070/5/6
f 1067/5/6 1068/5/6 1071/5/6
f 1071/5/6 1068/5/6 1072/5/6
f 1073/5/6 1074/5/6 1077/5/6
f 1077/5/6 1074/5/6 1078/5/6
f 1075/5/6 1076/5/6 1079/5/6
f 1079/5/6 1076/5/6 1080/5/6
f 1081/5/6 1082/5/6 1085/5/6
f 1085/5/6 1082/5/6 1086/5/6
f 1083/5/6 1084/5/6 1087/5/6
f 1087/5/6 1084/5/6 1088/5/6
f 1089/5/6 1090/5/6 1093/5/6
f 1093/5/6 1090/5/6 1094/5/6
f 1091/5/6 1092/5/6 1095/5/6
f 1095/5/6 1092/5/6 1096/5/6
f 1097/5/6 1098/5/6 1101/5/6
f 1101/5/6 1098/5/6 1102/5/6
f 1099/5/6 1100/5/6 1103/5/6
f 1103/5/6 1100/5/6 1104/5/6
f 1105/5/6 1106/5/6 1109/5/6
f 1109/5/6 1106/5/6 1110/5/6
f 1107/5/6 1108/5/6 1111/5/6
f 1111/5/6 1108/5/6 1112/5/6
f 1113/1/6 1114/1/6 1115/1/6
f 1115/1/6 1114/1/6 1116/1/6
f 1116/1/6 1114/1/6 1117/1/6
f 1117/1/6 1114/1/6 1118/1/6
f 1113/1/6 1115/1/6 1119/1/6
f 1116/1/6 1117/1/6 1120/1/6
f 1120/1/6 1117/1/6 1121/1/6
f 1118/1/6 1114/1/6 1122/1/6
f 1120/1/6 1121/1/6 1123/1/6
f 1121/1/6 1122/1/6 1123/1/6
f 1113/1/6 1119/1/6 1123/1/6
f 1119/1/6 1120/1/6 1123/1/6
f 1122/1/6 1114/1/6 1124/1/6
f 1123/1/6 1122/1/6 1124/1/6
f 1113/1/6 1123/1/6 1125/1/6
f 1124/1/6 1114/1/6 1126/1/6
f 1113/1/6 1125/1/6 1127/1/6
f 1125/1/6 1126/1/6 1127/1/6
f 1126/1/6 1114/1/6 1128/1/6
f 1127/1/6 1126/1/6 1128/1/6
f 1129/1/6 1130/1/6 1133/1/6
f 1133/1/6 1130/1/6 1134/1/6
f 1131/1/6 1132/1/6 1135/1/6
f 1135/1/6 1132/1/6 1136/1/6
f 1137/1/6 1138/1/6 1139/1/6
f 1139/1/6 1138/1/6 1140/1/6
